{
  "express": {
    "port" : 3001
  },
  "logger" : {
    "immediate" : false,
    "format" : "dev",
    "transports" : {
      "console" : {
        "enabled" : true,
        "colorize" : true,
        "timestamp" : true,
        "level" : "error",
        "handleException" : true
      },
      "file" : {
        "enabled" : false,
        "filename" : "logs/igthorn-api.log",
        "maxsize" : 1048576,
        "maxFiles" : 3,
        "timestamp" : true,
        "level" : "error",
        "handleException" : true
      },
      "logentries" : {
        "enabled" : false,
        "token" : "abc",
        "level" : "error",
        "handleException" : true
      }
    }
  },
  "rethinkDb": {
    "servers": [
      {
        "host" :  "172.17.0.2",
        "port" : 28015
      }
    ],
    "db" : "igthorn"
  }
}
